{"count":360,"next":"https://ll.thespacedevs.com/2.0.0/launch/upcoming/?limit=10&offset=10","previous":null,"results":[{"id":"aed6a40f-012e-4b97-b701-d7a8c73edcfd","url":"https://ll.thespacedevs.com/2.0.0/launch/aed6a40f-012e-4b97-b701-d7a8c73edcfd/","launch_library_id":null,"slug":"long-march-8-queqiao-2","name":"Long March 8 | Queqiao-2","status":{"id":3,"name":"Success"},"net":"2024-03-20T00:31:00Z","window_end":"2024-03-20T02:16:00Z","window_start":"2024-03-20T00:21:00Z","inhold":false,"tbdtime":false,"tbddate":false,"probability":null,"holdreason":"","failreason":"","hashtag":null,"launch_service_provider":{"id":88,"url":"https://ll.thespacedevs.com/2.0.0/agencies/88/","name":"China Aerospace Science and Technology Corporation","type":"Government"},"rocket":{"id":7839,"configuration":{"id":462,"launch_library_id":null,"url":"https://ll.thespacedevs.com/2.0.0/config/launcher/462/","name":"Long March 8","family":"Long March 8","full_name":"Long March 8","variant":"8"}},"mission":{"id":6346,"launch_library_id":null,"name":"Queqiao-2","description":"Queqiao-2 is a Chinese artificial satellite to serve as a communications relay for future Chinese lunar far side missions that cannot communicate directly with the Earth, beginning with the Chang'e 6 lunar sample return mission in 2024.\r\n\r\nIt will operate from a Distant Retrograde Orbit (DRO) of the Moon.\r\n\r\nThe launch also carries the Tiandu-1 & 2 small satellites testing cis-lunar space navigation and inter-satellite communication techniques for CNSA’s Deep Space Exploration Laboratory (DSEL).","launch_designator":null,"type":"Planetary Science","orbit":{"id":11,"name":"Lunar Orbit","abbrev":"LO"}},"pad":{"id":176,"url":"https://ll.thespacedevs.com/2.0.0/pad/176/","agency_id":null,"name":"201","info_url":null,"wiki_url":"https://en.wikipedia.org/wiki/Wenchang_Spacecraft_Launch_Site","map_url":"https://www.google.com/maps?q=19.618452,110.955356","latitude":"19.618452","longitude":"110.955356","location":{"id":8,"url":"https://ll.thespacedevs.com/2.0.0/location/8/","name":"Wenchang Space Launch Site, People's Republic of China","country_code":"CHN","map_image":"https://spacelaunchnow-prod-east.nyc3.digitaloceanspaces.com/media/launch_images/location_8_20200803142445.jpg","total_launch_count":28,"total_landing_count":0},"map_image":"https://spacelaunchnow-prod-east.nyc3.digitaloceanspaces.com/media/launch_images/pad_176_20200803143412.jpg","total_launch_count":17},"webcast_live":false,"image":"https://spacelaunchnow-prod-east.nyc3.digitaloceanspaces.com/media/images/cz-8_liftoff_2_image_20240320175819.jpeg","infographic":null,"program":[{"id":18,"url":"https://ll.thespacedevs.com/2.0.0/program/18/","name":"Chinese Lunar Exploration Program","description":"The Chinese Lunar Exploration Program also known as the Chang'e Project after the Chinese moon goddess Chang'e, is an ongoing series of robotic Moon missions by the China National Space Administration (CNSA). The program incorporates lunar orbiters, landers, rovers and sample return spacecraft, launched using Long March rockets.","agencies":[{"id":17,"url":"https://ll.thespacedevs.com/2.0.0/agencies/17/","name":"China National Space Administration","type":"Government"}],"image_url":"https://spacelaunchnow-prod-east.nyc3.digitaloceanspaces.com/media/images/chinese2520lun_program_20201129190923.png","start_date":"2003-01-01T00:00:00Z","end_date":null,"info_url":null,"wiki_url":"https://en.wikipedia.org/wiki/Chinese_Lunar_Exploration_Program"}]},{"id":"38a33be3-8000-4789-9ea5-659945a6d259","url":"https://ll.thespacedevs.com/2.0.0/launch/38a33be3-8000-4789-9ea5-659945a6d259/","launch_library_id":null,"slug":"long-march-2dyz-3-unknown-payload","name":"Long March 2D/YZ-3 | Unknown Payload","status":{"id":1,"name":"Go"},"net":"2024-03-21T05:35:00Z","window_end":"2024-03-21T05:52:00Z","window_start":"2024-03-21T05:19:00Z","inhold":false,"tbdtime":true,"tbddate":false,"probability":null,"holdreason":"","failreason":"","hashtag":null,"launch_service_provider":{"id":88,"url":"https://ll.thespacedevs.com/2.0.0/agencies/88/","name":"China Aerospace Science and Technology Corporation","type":"Government"},"rocket":{"id":8222,"configuration":{"id":176,"launch_library_id":213,"url":"https://ll.thespacedevs.com/2.0.0/config/launcher/176/","name":"Long March 2D/YZ-3","family":"Long March 2","full_name":"Long March 2D/YZ-3","variant":""}},"mission":{"id":6799,"launch_library_id":null,"name":"Unknown Payload","description":"Details TBD.","launch_designator":null,"type":"Unknown","orbit":{"id":25,"name":"Unknown","abbrev":"N/A"}},"pad":{"id":22,"url":"https://ll.thespacedevs.com/2.0.0/pad/22/","agency_id":null,"name":"Launch Area 4 (SLS-2 / 603)","info_url":null,"wiki_url":"https://en.wikipedia.org/wiki/Jiuquan_Launch_Area_4","map_url":"https://www.google.com/maps?q=40.960482,100.298059","latitude":"40.960482","longitude":"100.298059","location":{"id":17,"url":"https://ll.thespacedevs.com/2.0.0/location/17/","name":"Jiuquan Satellite Launch Center, People's Republic of China","country_code":"CHN","map_image":"https://spacelaunchnow-prod-east.nyc3.digitaloceanspaces.com/media/launch_images/location_17_20200803142429.jpg","total_launch_count":221,"total_landing_count":0},"map_image":"https://spacelaunchnow-prod-east.nyc3.digitaloceanspaces.com/media/launch_images/pad_22_20200803143437.jpg","total_launch_count":111},"webcast_live":false,"image":"https://spacelaunchnow-prod-east.nyc3.digitaloceanspaces.com/media/images/long_march_2d2_image_20231123203521.jpeg","infographic":null,"program":[]},{"id":"7f854a08-ea51-4470-9b80-84fb2252c9fe","url":"https://ll.thespacedevs.com/2.0.0/launch/7f854a08-ea51-4470-9b80-84fb2252c9fe/","launch_library_id":null,"slug":"electron-live-and-let-fly-nrol-123","name":"Electron | Live and Let Fly (NROL-123)","status":{"id":1,"name":"Go"},"net":"2024-03-21T06:40:00Z","window_end":"2024-03-21T06:45:00Z","window_start":"2024-03-21T05:30:00Z","inhold":false,"tbdtime":false,"tbddate":false,"probability":85,"holdreason":"","failreason":"","hashtag":null,"launch_service_provider":{"id":147,"url":"https://ll.thespacedevs.com/2.0.0/agencies/147/","name":"Rocket Lab","type":"Commercial"},"rocket":{"id":8204,"configuration":{"id":26,"launch_library_id":148,"url":"https://ll.thespacedevs.com/2.0.0/config/launcher/26/","name":"Electron","family":"Electron","full_name":"Electron","variant":""}},"mission":{"id":6775,"launch_library_id":null,"name":"Live and Let Fly (NROL-123)","description":"Mission for the National Reconnaissance Office.","launch_designator":null,"type":"Government/Top Secret","orbit":{"id":25,"name":"Unknown","abbrev":"N/A"}},"pad":{"id":79,"url":"https://ll.thespacedevs.com/2.0.0/pad/79/","agency_id":147,"name":"Rocket Lab Launch Complex 2 (Launch Area 0 C)","info_url":null,"wiki_url":null,"map_url":"https://www.google.com/maps?q=37.834,-75.488","latitude":"37.834","longitude":"-75.488","location":{"id":21,"url":"https://ll.thespacedevs.com/2.0.0/location/21/","name":"Wallops Island, Virginia, USA","country_code":"USA","map_image":"https://spacelaunchnow-prod-east.nyc3.digitaloceanspaces.com/media/launch_images/location_21_20200803142423.jpg","total_launch_count":77,"total_landing_count":0},"map_image":"https://spacelaunchnow-prod-east.nyc3.digitaloceanspaces.com/media/launch_images/pad_79_20200803143607.jpg","total_launch_count":3},"webcast_live":false,"image":"https://spacelaunchnow-prod-east.nyc3.digitaloceanspaces.com/media/images/electron_on_lc-_image_20240320141738.jpeg","infographic":null,"program":[]},{"id":"96ac7396-cba9-4548-b574-3a65fd6aa4ac","url":"https://ll.thespacedevs.com/2.0.0/launch/96ac7396-cba9-4548-b574-3a65fd6aa4ac/","launch_library_id":null,"slug":"soyuz-21a-soyuz-ms-25","name":"Soyuz 2.1a | Soyuz MS-25","status":{"id":1,"name":"Go"},"net":"2024-03-21T13:21:19Z","window_end":"2024-03-21T13:21:19Z","window_start":"2024-03-21T13:21:19Z","inhold":false,"tbdtime":false,"tbddate":false,"probability":null,"holdreason":"","failreason":"","hashtag":null,"launch_service_provider":{"id":63,"url":"https://ll.thespacedevs.com/2.0.0/agencies/63/","name":"Russian Federal Space Agency (ROSCOSMOS)","type":"Government"},"rocket":{"id":8027,"configuration":{"id":24,"launch_library_id":49,"url":"https://ll.thespacedevs.com/2.0.0/config/launcher/24/","name":"Soyuz 2.1a","family":"Soyuz","full_name":"Soyuz 2.1a","variant":""}},"mission":{"id":6558,"launch_library_id":null,"name":"Soyuz MS-25","description":"Soyuz MS-25 will carry two cosmonauts and one astronaut to the International Space Station aboard the Soyuz spacecraft from the Baikonur Cosmodrome in Kazakhstan.","launch_designator":null,"type":"Human Exploration","orbit":{"id":8,"name":"Low Earth Orbit","abbrev":"LEO"}},"pad":{"id":20,"url":"https://ll.thespacedevs.com/2.0.0/pad/20/","agency_id":null,"name":"31/6","info_url":null,"wiki_url":"https://en.wikipedia.org/wiki/Baikonur_Cosmodrome_Site_31","map_url":"https://www.google.com/maps?q=45.996034,63.564003","latitude":"45.996034","longitude":"63.564003","location":{"id":15,"url":"https://ll.thespacedevs.com/2.0.0/location/15/","name":"Baikonur Cosmodrome, Republic of Kazakhstan","country_code":"KAZ","map_image":"https://spacelaunchnow-prod-east.nyc3.digitaloceanspaces.com/media/launch_images/location_15_20200803142517.jpg","total_launch_count":1546,"total_landing_count":0},"map_image":"https://spacelaunchnow-prod-east.nyc3.digitaloceanspaces.com/media/launch_images/pad_20_20200803143516.jpg","total_launch_count":413},"webcast_live":false,"image":"https://spacelaunchnow-prod-east.nyc3.digitaloceanspaces.com/media/images/soyuz_2.1a_on_3_image_20240320172211.jpg","infographic":null,"program":[]},{"id":"604e4aa8-73f8-4f1c-bf4c-5a130625cac7","url":"https://ll.thespacedevs.com/2.0.0/launch/604e4aa8-73f8-4f1c-bf4c-5a130625cac7/","launch_library_id":null,"slug":"falcon-9-block-5-dragon-crs-2-spx-30","name":"Falcon 9 Block 5 | Dragon CRS-2 SpX-30","status":{"id":1,"name":"Go"},"net":"2024-03-21T20:55:09Z","window_end":"2024-03-21T20:55:09Z","window_start":"2024-03-21T20:55:09Z","inhold":false,"tbdtime":false,"tbddate":false,"probability":90,"holdreason":"","failreason":"","hashtag":null,"launch_service_provider":{"id":121,"url":"https://ll.thespacedevs.com/2.0.0/agencies/121/","name":"SpaceX","type":"Commercial"},"rocket":{"id":7743,"configuration":{"id":164,"launch_library_id":188,"url":"https://ll.thespacedevs.com/2.0.0/config/launcher/164/","name":"Falcon 9","family":"Falcon","full_name":"Falcon 9 Block 5","variant":"Block 5"}},"mission":{"id":6261,"launch_library_id":null,"name":"Dragon CRS-2 SpX-30","description":"30th commercial resupply services mission to the International Space Station operated by SpaceX. The flight will be conducted under the second Commercial Resupply Services contract with NASA.\r\n\r\nCargo Dragon 2 brings supplies and payloads, including critical materials to directly support science and research investigations that occur onboard the orbiting laboratory.","launch_designator":null,"type":"Resupply","orbit":{"id":8,"name":"Low Earth Orbit","abbrev":"LEO"}},"pad":{"id":80,"url":"https://ll.thespacedevs.com/2.0.0/pad/80/","agency_id":121,"name":"Space Launch Complex 40","info_url":null,"wiki_url":"https://en.wikipedia.org/wiki/Cape_Canaveral_Air_Force_Station_Space_Launch_Complex_40","map_url":"https://www.google.com/maps?q=28.56194122,-80.57735736","latitude":"28.56194122","longitude":"-80.57735736","location":{"id":12,"url":"https://ll.thespacedevs.com/2.0.0/location/12/","name":"Cape Canaveral, FL, USA","country_code":"USA","map_image":"https://spacelaunchnow-prod-east.nyc3.digitaloceanspaces.com/media/launch_images/location_12_20200803142519.jpg","total_launch_count":939,"total_landing_count":49},"map_image":"https://spacelaunchnow-prod-east.nyc3.digitaloceanspaces.com/media/launch_images/pad_80_20200803143323.jpg","total_launch_count":229},"webcast_live":false,"image":"https://spacelaunchnow-prod-east.nyc3.digitaloceanspaces.com/media/images/f9_with_cargo_d_image_20240320205701.jpg","infographic":null,"program":[{"id":11,"url":"https://ll.thespacedevs.com/2.0.0/program/11/","name":"Commercial Resupply Services","description":"Commercial Resupply Services (CRS) are a series of flights awarded by NASA for the delivery of cargo and supplies to the International Space Station.The first CRS contracts were signed in 2008 and awarded $1.6 billion to SpaceX for twelve cargo Dragon and $1.9 billion to Orbital Sciences for eight Cygnus flights, covering deliveries to 2016. The Falcon 9 and Antares rockets were also developed under the CRS program to deliver cargo spacecraft to the ISS.","agencies":[{"id":44,"url":"https://ll.thespacedevs.com/2.0.0/agencies/44/","name":"National Aeronautics and Space Administration","type":"Government"},{"id":257,"url":"https://ll.thespacedevs.com/2.0.0/agencies/257/","name":"Northrop Grumman Space Systems","type":"Commercial"},{"id":1020,"url":"https://ll.thespacedevs.com/2.0.0/agencies/1020/","name":"Sierra Nevada Corporation","type":"Commercial"},{"id":121,"url":"https://ll.thespacedevs.com/2.0.0/agencies/121/","name":"SpaceX","type":"Commercial"}],"image_url":"https://spacelaunchnow-prod-east.nyc3.digitaloceanspaces.com/media/images/commercial2520_program_20201129212219.png","start_date":"2008-12-23T00:00:00Z","end_date":null,"info_url":null,"wiki_url":"https://en.wikipedia.org/wiki/Commercial_Resupply_Services#Commercial_Resupply_Services"},{"id":17,"url":"https://ll.thespacedevs.com/2.0.0/program/17/","name":"International Space Station","description":"The International Space Station programme is tied together by a complex set of legal, political and financial agreements between the sixteen nations involved in the project, governing ownership of the various components, rights to crewing and utilization, and responsibilities for crew rotation and resupply of the International Space Station. It was conceived in 1984 by President Ronald Reagan, during the Space Station Freedom project as it was originally called.","agencies":[{"id":16,"url":"https://ll.thespacedevs.com/2.0.0/agencies/16/","name":"Canadian Space Agency","type":"Government"},{"id":27,"url":"https://ll.thespacedevs.com/2.0.0/agencies/27/","name":"European Space Agency","type":"Multinational"},{"id":37,"url":"https://ll.thespacedevs.com/2.0.0/agencies/37/","name":"Japan Aerospace Exploration Agency","type":"Government"},{"id":44,"url":"https://ll.thespacedevs.com/2.0.0/agencies/44/","name":"National Aeronautics and Space Administration","type":"Government"},{"id":63,"url":"https://ll.thespacedevs.com/2.0.0/agencies/63/","name":"Russian Federal Space Agency (ROSCOSMOS)","type":"Government"}],"image_url":"https://spacelaunchnow-prod-east.nyc3.digitaloceanspaces.com/media/images/international2_program_20201129184745.png","start_date":"1998-11-20T06:40:00Z","end_date":null,"info_url":"https://www.nasa.gov/mission_pages/station/main/index.html","wiki_url":"https://en.wikipedia.org/wiki/International_Space_Station_programme"}]},{"id":"e7b297d1-3312-4264-b802-f9d6ea11b3b2","url":"https://ll.thespacedevs.com/2.0.0/launch/e7b297d1-3312-4264-b802-f9d6ea11b3b2/","launch_library_id":null,"slug":"falcon-9-block-5-starlink-group-6-42","name":"Falcon 9 Block 5 | Starlink Group 6-42","status":{"id":2,"name":"TBD"},"net":"2024-03-22T23:55:00Z","window_end":"2024-03-23T04:26:00Z","window_start":"2024-03-22T23:55:00Z","inhold":false,"tbdtime":true,"tbddate":false,"probability":null,"holdreason":"","failreason":"","hashtag":null,"launch_service_provider":{"id":121,"url":"https://ll.thespacedevs.com/2.0.0/agencies/121/","name":"SpaceX","type":"Commercial"},"rocket":{"id":7946,"configuration":{"id":164,"launch_library_id":188,"url":"https://ll.thespacedevs.com/2.0.0/config/launcher/164/","name":"Falcon 9","family":"Falcon","full_name":"Falcon 9 Block 5","variant":"Block 5"}},"mission":{"id":6455,"launch_library_id":null,"name":"Starlink Group 6-42","description":"A batch of satellites for the Starlink mega-constellation - SpaceX's project for space-based Internet communication system.","launch_designator":null,"type":"Communications","orbit":{"id":8,"name":"Low Earth Orbit","abbrev":"LEO"}},"pad":{"id":87,"url":"https://ll.thespacedevs.com/2.0.0/pad/87/","agency_id":121,"name":"Launch Complex 39A","info_url":null,"wiki_url":"https://en.wikipedia.org/wiki/Kennedy_Space_Center_Launch_Complex_39#Launch_Pad_39A","map_url":"https://www.google.com/maps?q=28.60822681,-80.60428186","latitude":"28.60822681","longitude":"-80.60428186","location":{"id":27,"url":"https://ll.thespacedevs.com/2.0.0/location/27/","name":"Kennedy Space Center, FL, USA","country_code":"USA","map_image":"https://spacelaunchnow-prod-east.nyc3.digitaloceanspaces.com/media/launch_images/location_27_20200803142447.jpg","total_launch_count":231,"total_landing_count":0},"map_image":"https://spacelaunchnow-prod-east.nyc3.digitaloceanspaces.com/media/launch_images/pad_87_20200803143537.jpg","total_launch_count":173},"webcast_live":false,"image":"https://spacelaunchnow-prod-east.nyc3.digitaloceanspaces.com/media/images/falcon2520925_image_20221009234147.png","infographic":null,"program":[{"id":25,"url":"https://ll.thespacedevs.com/2.0.0/program/25/","name":"Starlink","description":"Starlink is a satellite internet constellation operated by American aerospace company SpaceX","agencies":[{"id":121,"url":"https://ll.thespacedevs.com/2.0.0/agencies/121/","name":"SpaceX","type":"Commercial"}],"image_url":"https://spacelaunchnow-prod-east.nyc3.digitaloceanspaces.com/media/images/starlink_program_20231228154508.jpeg","start_date":"2018-02-22T14:17:00Z","end_date":null,"info_url":"https://starlink.com","wiki_url":"https://en.wikipedia.org/wiki/Starlink"}]},{"id":"5acc8f72-bde2-4466-b64e-f580bc71ae2f","url":"https://ll.thespacedevs.com/2.0.0/launch/5acc8f72-bde2-4466-b64e-f580bc71ae2f/","launch_library_id":null,"slug":"falcon-9-block-5-starlink-group-6-46","name":"Falcon 9 Block 5 | Starlink Group 6-46","status":{"id":2,"name":"TBD"},"net":"2024-03-25T21:00:00Z","window_end":"2024-03-26T01:31:00Z","window_start":"2024-03-25T21:00:00Z","inhold":false,"tbdtime":true,"tbddate":false,"probability":null,"holdreason":"","failreason":"","hashtag":null,"launch_service_provider":{"id":121,"url":"https://ll.thespacedevs.com/2.0.0/agencies/121/","name":"SpaceX","type":"Commercial"},"rocket":{"id":8191,"configuration":{"id":164,"launch_library_id":188,"url":"https://ll.thespacedevs.com/2.0.0/config/launcher/164/","name":"Falcon 9","family":"Falcon","full_name":"Falcon 9 Block 5","variant":"Block 5"}},"mission":{"id":6760,"launch_library_id":null,"name":"Starlink Group 6-46","description":"A batch of satellites for the Starlink mega-constellation - SpaceX's project for space-based Internet communication system.","launch_designator":null,"type":"Communications","orbit":{"id":8,"name":"Low Earth Orbit","abbrev":"LEO"}},"pad":{"id":80,"url":"https://ll.thespacedevs.com/2.0.0/pad/80/","agency_id":121,"name":"Space Launch Complex 40","info_url":null,"wiki_url":"https://en.wikipedia.org/wiki/Cape_Canaveral_Air_Force_Station_Space_Launch_Complex_40","map_url":"https://www.google.com/maps?q=28.56194122,-80.57735736","latitude":"28.56194122","longitude":"-80.57735736","location":{"id":12,"url":"https://ll.thespacedevs.com/2.0.0/location/12/","name":"Cape Canaveral, FL, USA","country_code":"USA","map_image":"https://spacelaunchnow-prod-east.nyc3.digitaloceanspaces.com/media/launch_images/location_12_20200803142519.jpg","total_launch_count":939,"total_landing_count":49},"map_image":"https://spacelaunchnow-prod-east.nyc3.digitaloceanspaces.com/media/launch_images/pad_80_20200803143323.jpg","total_launch_count":229},"webcast_live":false,"image":"https://spacelaunchnow-prod-east.nyc3.digitaloceanspaces.com/media/images/falcon2520925_image_20221009234147.png","infographic":null,"program":[{"id":25,"url":"https://ll.thespacedevs.com/2.0.0/program/25/","name":"Starlink","description":"Starlink is a satellite internet constellation operated by American aerospace company SpaceX","agencies":[{"id":121,"url":"https://ll.thespacedevs.com/2.0.0/agencies/121/","name":"SpaceX","type":"Commercial"}],"image_url":"https://spacelaunchnow-prod-east.nyc3.digitaloceanspaces.com/media/images/starlink_program_20231228154508.jpeg","start_date":"2018-02-22T14:17:00Z","end_date":null,"info_url":"https://starlink.com","wiki_url":"https://en.wikipedia.org/wiki/Starlink"}]},{"id":"a32fa9ec-7925-4698-bbc7-a7ed1ad12621","url":"https://ll.thespacedevs.com/2.0.0/launch/a32fa9ec-7925-4698-bbc7-a7ed1ad12621/","launch_library_id":1977,"slug":"delta-iv-heavy-nrol-70","name":"Delta IV Heavy | NROL-70","status":{"id":2,"name":"TBD"},"net":"2024-03-28T00:00:00Z","window_end":"2024-03-28T00:00:00Z","window_start":"2024-03-28T00:00:00Z","inhold":false,"tbdtime":true,"tbddate":false,"probability":null,"holdreason":"","failreason":"","hashtag":null,"launch_service_provider":{"id":124,"url":"https://ll.thespacedevs.com/2.0.0/agencies/124/","name":"United Launch Alliance","type":"Commercial"},"rocket":{"id":2534,"configuration":{"id":21,"launch_library_id":21,"url":"https://ll.thespacedevs.com/2.0.0/config/launcher/21/","name":"Delta IV Heavy","family":"Delta","full_name":"Delta IV Heavy","variant":"Heavy"}},"mission":{"id":6494,"launch_library_id":null,"name":"NROL-70","description":"Classified payload for the NRO.\r\nLast flight of the Delta IV Heavy rocket.","launch_designator":null,"type":"Government/Top Secret","orbit":{"id":25,"name":"Unknown","abbrev":"N/A"}},"pad":{"id":38,"url":"https://ll.thespacedevs.com/2.0.0/pad/38/","agency_id":null,"name":"Space Launch Complex 37B","info_url":null,"wiki_url":"https://en.wikipedia.org/wiki/Cape_Canaveral_Air_Force_Station_Space_Launch_Complex_37","map_url":"https://www.google.com/maps?q=28.5317,-80.56495","latitude":"28.5317","longitude":"-80.56495","location":{"id":12,"url":"https://ll.thespacedevs.com/2.0.0/location/12/","name":"Cape Canaveral, FL, USA","country_code":"USA","map_image":"https://spacelaunchnow-prod-east.nyc3.digitaloceanspaces.com/media/launch_images/location_12_20200803142519.jpg","total_launch_count":939,"total_landing_count":49},"map_image":"https://spacelaunchnow-prod-east.nyc3.digitaloceanspaces.com/media/launch_images/pad_38_20200803143515.jpg","total_launch_count":39},"webcast_live":false,"image":"https://spacelaunchnow-prod-east.nyc3.digitaloceanspaces.com/media/images/delta_iv_heavy_image_20210426103838.jpg","infographic":null,"program":[]},{"id":"ba739b7f-9bdd-487c-9742-d76182af49f8","url":"https://ll.thespacedevs.com/2.0.0/launch/ba739b7f-9bdd-487c-9742-d76182af49f8/","launch_library_id":null,"slug":"falcon-9-block-5-eutelsat-36d","name":"Falcon 9 Block 5 | Eutelsat 36D","status":{"id":2,"name":"TBD"},"net":"2024-03-29T00:00:00Z","window_end":"2024-03-29T00:00:00Z","window_start":"2024-03-29T00:00:00Z","inhold":false,"tbdtime":true,"tbddate":false,"probability":null,"holdreason":"","failreason":"","hashtag":null,"launch_service_provider":{"id":121,"url":"https://ll.thespacedevs.com/2.0.0/agencies/121/","name":"SpaceX","type":"Commercial"},"rocket":{"id":8205,"configuration":{"id":164,"launch_library_id":188,"url":"https://ll.thespacedevs.com/2.0.0/config/launcher/164/","name":"Falcon 9","family":"Falcon","full_name":"Falcon 9 Block 5","variant":"Block 5"}},"mission":{"id":6776,"launch_library_id":null,"name":"Eutelsat 36D","description":"Eutelsat 36D is a planned new generation multi-mission geostationary telecommunications satellite for Eutelsat, replacing and enhance capacity at 36° East, a key orbital slot for Eutelsat for TV broadcasting (DTH) and government services over Africa, Russia, and Europe. \r\n\r\nIt is based on the Airbus Eurostar-Neo platform, with electric power generation capability of 18 kW, EOR (Electric Orbit Raising) capability,  and a launch mass of 5 tons. \r\n\r\nWith 70 Ku-band transponders over five downlink beams and a steerable antenna, Eutelsat 36D provides flexibility and performance optimisation to deliver service in Africa, Russia and Europe for an operational lifetime of more than 15 years.","launch_designator":null,"type":"Communications","orbit":{"id":2,"name":"Geostationary Transfer Orbit","abbrev":"GTO"}},"pad":{"id":80,"url":"https://ll.thespacedevs.com/2.0.0/pad/80/","agency_id":121,"name":"Space Launch Complex 40","info_url":null,"wiki_url":"https://en.wikipedia.org/wiki/Cape_Canaveral_Air_Force_Station_Space_Launch_Complex_40","map_url":"https://www.google.com/maps?q=28.56194122,-80.57735736","latitude":"28.56194122","longitude":"-80.57735736","location":{"id":12,"url":"https://ll.thespacedevs.com/2.0.0/location/12/","name":"Cape Canaveral, FL, USA","country_code":"USA","map_image":"https://spacelaunchnow-prod-east.nyc3.digitaloceanspaces.com/media/launch_images/location_12_20200803142519.jpg","total_launch_count":939,"total_landing_count":49},"map_image":"https://spacelaunchnow-prod-east.nyc3.digitaloceanspaces.com/media/launch_images/pad_80_20200803143323.jpg","total_launch_count":229},"webcast_live":false,"image":"https://spacelaunchnow-prod-east.nyc3.digitaloceanspaces.com/media/images/falcon_9_image_20230807133459.jpeg","infographic":null,"program":[]},{"id":"eab593aa-ba0b-4191-91b4-406b22ad8d74","url":"https://ll.thespacedevs.com/2.0.0/launch/eab593aa-ba0b-4191-91b4-406b22ad8d74/","launch_library_id":1676,"slug":"soyuz-21b-resurs-p-no4","name":"Soyuz 2.1b | Resurs-P No.4","status":{"id":2,"name":"TBD"},"net":"2024-03-30T09:36:00Z","window_end":"2024-03-30T09:36:00Z","window_start":"2024-03-30T09:36:00Z","inhold":false,"tbdtime":false,"tbddate":false,"probability":null,"holdreason":"","failreason":"","hashtag":null,"launch_service_provider":{"id":63,"url":"https://ll.thespacedevs.com/2.0.0/agencies/63/","name":"Russian Federal Space Agency (ROSCOSMOS)","type":"Government"},"rocket":{"id":2202,"configuration":{"id":15,"launch_library_id":3,"url":"https://ll.thespacedevs.com/2.0.0/config/launcher/15/","name":"Soyuz 2.1b","family":"Soyuz","full_name":"Soyuz 2.1b","variant":""}},"mission":{"id":6563,"launch_library_id":null,"name":"Resurs-P No.4","description":"Resurs-P is a series of Russian commercial Earth observation satellites capable of acquiring high-resolution imagery (resolution up to 1.0 m).","launch_designator":null,"type":"Earth Science","orbit":{"id":17,"name":"Sun-Synchronous Orbit","abbrev":"SSO"}},"pad":{"id":20,"url":"https://ll.thespacedevs.com/2.0.0/pad/20/","agency_id":null,"name":"31/6","info_url":null,"wiki_url":"https://en.wikipedia.org/wiki/Baikonur_Cosmodrome_Site_31","map_url":"https://www.google.com/maps?q=45.996034,63.564003","latitude":"45.996034","longitude":"63.564003","location":{"id":15,"url":"https://ll.thespacedevs.com/2.0.0/location/15/","name":"Baikonur Cosmodrome, Republic of Kazakhstan","country_code":"KAZ","map_image":"https://spacelaunchnow-prod-east.nyc3.digitaloceanspaces.com/media/launch_images/location_15_20200803142517.jpg","total_launch_count":1546,"total_landing_count":0},"map_image":"https://spacelaunchnow-prod-east.nyc3.digitaloceanspaces.com/media/launch_images/pad_20_20200803143516.jpg","total_launch_count":413},"webcast_live":false,"image":"https://spacelaunchnow-prod-east.nyc3.digitaloceanspaces.com/media/images/soyuz_2.1b_image_20230802085331.jpg","infographic":null,"program":[]}]}